Capítulo 8 Analisis Bivariado variables categoricas | Análisis Exploratorio de Datos: Student Performance UCI
…
tabla_cat_g3 <- dplyr::bind_rows(lapply(factor_vars, make_grp_g3))
tabla_cat_g3

## # A tibble: 43 × 11
##    variable niveles     n media    ds mediana minimo maximo    Q1    Q3   IQR
##    <chr>    <chr>   <int> <dbl> <dbl>   <dbl>  <dbl>  <dbl> <dbl> <dbl> <dbl>
##  1 school   GP        349 10.5   4.63      11      0     20     8  14    6   
##  2 school   MS         46  9.85  4.24      10      0     19     8  12.8  4.75
##  3 sex      F         208  9.97  4.62      10      0     19     8  13    5   
##  4 sex      M         187 10.9   4.50      11      0     20     9  14    5   
##  5 address  R          88  9.51  4.56      10      0     19     7  12    5   
##  6 address  U         307 10.7   4.56      11      0     20     9  14    5   
##  7 famsize  GT3       281 10.2   4.70      11      0     20     8  14    6   
##  8 famsize  LE3       114 11     4.23      11      0     19     9  13.8  4.75
##  9 pstatus  A          41 11.2   4.29      11      0     19     9  13    4   
## 10 pstatus  T         354 10.3   4.61      11      0     20     8  14    6   
## # ℹ 33 more rows
…
